#FIG 3.2  Produced by xfig version 3.2.6a
Landscape
Center
Metric
A4
100.00
Single
-2
1200 2
2 1 0 1 0 7 50 -1 -1 0.000 0 0 -1 0 0 2
	 2970 540 2970 720
2 2 0 1 0 0 52 -1 20 0.000 0 0 -1 0 0 5
	 1395 585 3195 585 3195 765 1395 765 1395 585
2 2 0 1 0 11 51 -1 36 0.000 0 0 7 0 0 5
	 3150 540 1350 540 1350 720 3150 720 3150 540
2 1 0 1 0 7 50 -1 -1 0.000 0 0 -1 0 0 2
	 3060 630 3060 720
2 1 0 1 0 7 50 -1 -1 0.000 0 0 -1 0 0 2
	 2970 1260 2970 1440
2 2 0 1 0 11 51 -1 36 0.000 0 0 7 0 0 5
	 3150 1260 1350 1260 1350 1440 3150 1440 3150 1260
2 1 0 1 0 7 50 -1 -1 0.000 0 0 -1 0 0 2
	 3060 1350 3060 1440
2 2 0 1 0 0 52 -1 20 0.000 0 0 -1 0 0 5
	 1395 1305 3195 1305 3195 1485 1395 1485 1395 1305
2 2 0 1 0 19 51 -1 36 0.000 0 0 -1 0 0 5
	 4050 450 5850 450 5850 1620 4050 1620 4050 450
2 1 0 1 0 7 50 -1 -1 0.000 0 0 -1 0 0 2
	 4050 945 5850 945
2 1 0 1 0 7 50 -1 -1 0.000 0 0 -1 0 0 2
	 4050 1125 5850 1125
2 1 0 1 0 7 50 -1 -1 0.000 0 0 -1 0 0 2
	 5670 945 5670 1125
2 1 0 1 0 7 50 -1 -1 0.000 0 0 -1 0 0 2
	 5760 1035 5760 1125
2 2 0 1 0 0 52 -1 20 0.000 0 0 -1 0 0 5
	 4095 495 5895 495 5895 1665 4095 1665 4095 495
4 1 0 50 -1 16 8 0.0000 4 135 270 3060 495 CPL\001
4 1 0 50 -1 16 8 0.0000 4 135 180 2250 495 CS\001
4 1 0 50 -1 16 8 0.0000 4 135 270 3060 1215 RPL\001
4 1 0 50 -1 16 8 0.0000 4 135 180 2250 1215 FS\001
4 1 0 50 -1 16 8 0.0000 4 165 1620 4950 405 table des descripteurs de segments\001
4 1 0 50 -1 16 8 0.0000 4 135 270 5715 900 DPL\001
